[gd_scene load_steps=4 format=1]

[ext_resource path="res://Scenes/MazeLayer.tscn" type="PackedScene" id=1]
[ext_resource path="res://Scenes/Player.tscn" type="PackedScene" id=2]



[sub_resource type="CanvasItemMaterial" id=1]

shader/shading_mode = 0

[node name="World" type="Node2D"]

transform/pos = Vector2( 2.15092, 1.07545 )

[node name="TileMap" parent="." instance=ExtResource( 1 )]

material/material = SubResource( 1 )
transform/pos = Vector2( 25, 25 )
collision/bounce = 10.0
cols = 8
rows = 8
roomTries = 2

[node name="Player" parent="TileMap" instance=ExtResource( 2 )]

transform/pos = Vector2( 211.896, 27.6079 )


